[
   {
     "name" : "addominali"

   },
   {
     "name" : "panca"
   },
   {
     "name" : "leg extension"
   },
   {
     "name" : "addominali1"

   },
   {
     "name" : "panca1"
   },
   {
     "name" : "leg extension1"
   },
   {
     "name" : "addominali2"

   },
   {
     "name" : "panca2"
   },
   {
     "name" : "leg extension2"
   },
   {
     "name" : "addominali3"

   },
   {
     "name" : "panca3"
   },
   {
     "name" : "leg extension3"
   }

]
